{
	"id": "maven-lts-rm",
	"source": "default",
	"name": "LTS Release Manager (Maven)",
	"description": "",
	"privileges": [
		"nx-repository-view-maven2-maven-lts-releases-*"
	],
	"roles": [
		"nx-anonymous"
	]
}